-------------------------------------------------------------------------------
Test set: org.apijavaspringboot.dto.CategoryDTOTest
-------------------------------------------------------------------------------
Tests run: 1, Failures: 0, Errors: 0, Skipped: 0, Time elapsed: 0.025 s - in org.apijavaspringboot.dto.CategoryDTOTest
