/home/robson/Documentos/Projetos/ApiJavaSpringBoot/api-java-spring-boot/src/test/java/org/apijavaspringboot/dto/CategoryDTOTest.java
/home/robson/Documentos/Projetos/ApiJavaSpringBoot/api-java-spring-boot/src/test/java/org/apijavaspringboot/resource/ProductResourceTest.java
/home/robson/Documentos/Projetos/ApiJavaSpringBoot/api-java-spring-boot/src/test/java/org/apijavaspringboot/ApiJavaSpringBootApplicationTests.java
/home/robson/Documentos/Projetos/ApiJavaSpringBoot/api-java-spring-boot/src/test/java/org/apijavaspringboot/dto/ProductDTOTest.java
/home/robson/Documentos/Projetos/ApiJavaSpringBoot/api-java-spring-boot/src/test/java/org/apijavaspringboot/service/ProductServiceTest.java
